Trabajando con datos en profundidad, creando diagramas estratigráficos
…
lem <- filter(LEM, rate <= 0.5)

Cómo seleccionar columnas con select

lemplot <- select(LEM, MS, TOC, TIC,TN,BioSi,"TOC/TN")
filter(lemplot, TOC/TN <= 10)

El pipe: %>%

Con el paquete "dplyr", podemos realizar una serie de operaciones, por ejemplo select y entonces filter, enviando los resultados de una función a otra usando lo que se llama el pipe operator: %>%. Algunos detalles se incluyen a continuación. En "dplyr", podemos escribir código que se parece más a una descripción de lo que queremos hacer sin objetos intermedios:

LEM %>% select(MS, TOC, TIC,TN,BioSi,"TOC/TN") %>% filter(TOC< 2)

## # A tibble: 128 x 6
##       MS   TOC    TIC     TN BioSi `TOC/TN`
##    <dbl> <dbl>  <dbl>  <dbl> <dbl>    <dbl>
##  1  55.9  1.90 0      NA      18.8    NA   
##  2  67.4  1.91 0.196  NA      20.2    NA   
##  3  80.0  1.94 0.0277  0.21   19.2    10.8 
##  4  NA    1.12 0.262  NA      19.4    NA   
##  5  97.9  1.76 0.113  NA      20.4    NA   
##  6  NA    1.89 0      NA      18.7    NA   
##  7 114.   1.71 0.0132 NA      19.5    NA   
##  8  NA    1.46 0       0.175  17.7     9.77
##  9 128.   1.26 0      NA      18.4    NA   
## 10  NA    1.84 0      NA      19.8    NA   
## # ... with 118 more rows
…
